project1/project_1_teamLoOsE_V0/code/pipeline.vcd
$date
	Wed Dec 20 14:58:01 2017
$end
$version
	Icarus Verilog
$end
$timescale
	1s
$end
$scope module TestBench $end
$var reg 1 ! Clk $end
$var reg 1 " Start $end
$var integer 32 # counter [31:0] $end
$var integer 32 $ flush [31:0] $end
$var integer 32 % i [31:0] $end
$var integer 32 & outfile [31:0] $end
$var integer 32 ' stall [31:0] $end
$scope module CPU $end
$var wire 1 ! clk_i $end
$var wire 1 ( rst_i $end
$var wire 1 " start_i $end
$var wire 1 ) zero $end
$var wire 5 * write_register [4:0] $end
$var wire 32 + sign_extended [31:0] $end
$var wire 32 , reg_write_data [31:0] $end
$var wire 32 - jump_address [31:0] $end
$var wire 32 . instruction [31:0] $end
$var wire 3 / alu_control [2:0] $end
$var wire 32 0 PC_out [31:0] $end
$scope module ALU $end
$var wire 32 1 data2_i [31:0] $end
$var wire 32 2 data1_i [31:0] $end
$var wire 3 3 ALUCtrl_i [2:0] $end
$var reg 1 ) Zero_o $end
$var reg 32 4 data_o [31:0] $end
$upscope $end
$scope module ALU_Control $end
$var wire 6 5 funct_i [5:0] $end
$var wire 2 6 ALUOp_i [1:0] $end
$var reg 3 7 ALUCtrl_o [2:0] $end
$upscope $end
$scope module ALU_add_only $end
$var wire 32 8 inB [31:0] $end
$var wire 32 9 inA [31:0] $end
$var wire 32 : add_out [31:0] $end
$upscope $end
$scope module Add_PC $end
$var wire 32 ; data2_in [31:0] $end
$var wire 32 < data_o [31:0] $end
$var wire 32 = data1_in [31:0] $end
$upscope $end
$scope module Control $end
$var wire 6 > Op_i [5:0] $end
$var reg 2 ? ALUOp_o [1:0] $end
$var reg 1 @ ALUSrc_o $end
$var reg 1 A Branch_o $end
$var reg 1 B Ext_o $end
$var reg 1 C Jump_o $end
$var reg 1 D MemRead_o $end
$var reg 1 E MemWrite_o $end
$var reg 1 F MemtoReg_o $end
$var reg 1 G RegDst_o $end
$var reg 1 H RegWrite_o $end
$upscope $end
$scope module Data_Memory $end
$var wire 1 ! clk $end
$var wire 1 ( reset $end
$var wire 32 I write_data [31:0] $end
$var wire 32 J read_data [31:0] $end
$var wire 32 K addr [31:0] $end
$var wire 1 L MemWrite $end
$var wire 1 M MemRead $end
$var integer 32 N k [31:0] $end
$upscope $end
$scope module EX_MEM $end
$var wire 32 O ALU_result [31:0] $end
$var wire 1 ! clk_i $end
$var wire 5 P Write_register [4:0] $end
$var wire 1 Q RegWrite $end
$var wire 1 R MemtoReg $end
$var wire 32 S Mem_Write_Data [31:0] $end
$var wire 1 T MemWrite $end
$var wire 1 U MemRead $end
$var reg 32 V ALU_result_o [31:0] $end
$var reg 1 M MemRead_o $end
$var reg 1 L MemWrite_o $end
$var reg 32 W Mem_Write_Data_o [31:0] $end
$var reg 1 X MemtoReg_o $end
$var reg 1 Y RegWrite_o $end
$var reg 5 Z Write_register_o [4:0] $end
$upscope $end
$scope module ForwardingUnit $end
$var wire 1 Y EX_MEM_RegWrite $end
$var wire 5 [ EX_MEM_RegisterRd [4:0] $end
$var wire 1 ! clk_i $end
$var wire 5 \ MEM_WB_RegisterRd [4:0] $end
$var wire 1 ] MEM_WB_RegWrite $end
$var wire 5 ^ ID_EX_RegisterRt [4:0] $end
$var wire 5 _ ID_EX_RegisterRs [4:0] $end
$var reg 2 ` ForwardA [1:0] $end
$var reg 2 a ForwardB [1:0] $end
$upscope $end
$scope module HazardDetection $end
$var wire 1 b control $end
$var wire 1 c pchazard_o $end
$var wire 1 d mux8select_o $end
$var wire 1 e IF_ID_hazard_o $end
$var wire 5 f IF_ID_RTaddr [4:0] $end
$var wire 5 g IF_ID_RSaddr [4:0] $end
$var wire 5 h ID_EX_RTaddr [4:0] $end
$var wire 1 U ID_EX_MemRead $end
$upscope $end
$scope module ID_EX $end
$var wire 1 ! clk_i $end
$var wire 32 i sign_extended [31:0] $end
$var wire 32 j read_data_2 [31:0] $end
$var wire 32 k read_data_1 [31:0] $end
$var wire 15 l instruction [14:0] $end
$var wire 1 m RegWrite $end
$var wire 1 n RegDst $end
$var wire 32 o PC_add_4 [31:0] $end
$var wire 1 p MemtoReg $end
$var wire 1 q MemWrite $end
$var wire 1 r MemRead $end
$var wire 1 s ALUSrc $end
$var wire 2 t ALUOp [1:0] $end
$var reg 2 u ALUOp_o [1:0] $end
$var reg 1 v ALUSrc_o $end
$var reg 1 U MemRead_o $end
$var reg 1 T MemWrite_o $end
$var reg 1 R MemtoReg_o $end
$var reg 32 w PC_add_4_o [31:0] $end
$var reg 1 x RegDst_o $end
$var reg 1 Q RegWrite_o $end
$var reg 15 y instruction_o [14:0] $end
$var reg 32 z read_data_1_o [31:0] $end
$var reg 32 { read_data_2_o [31:0] $end
$var reg 32 | sign_extended_o [31:0] $end
$upscope $end
$scope module IF_ID $end
$var wire 32 } PC_add_4 [31:0] $end
$var wire 1 ! clk_i $end
$var wire 1 e stall $end
$var wire 32 ~ instruction [31:0] $end
$var wire 1 !" flush $end
$var reg 32 "" PC_add_out [31:0] $end
$var reg 32 #" inst_o [31:0] $end
$upscope $end
$scope module Instruction_Memory $end
$var wire 32 $" instr_o [31:0] $end
$var wire 32 %" addr_i [31:0] $end
$upscope $end
$scope module Jump $end
$var wire 26 &" shift_in [25:0] $end
$var wire 4 '" pc_4bit [3:0] $end
$var wire 32 (" jump_address [31:0] $end
$upscope $end
$scope module MEM_WB $end
$var wire 32 )" ALU_result [31:0] $end
$var wire 1 X MemtoReg $end
$var wire 32 *" Read_data [31:0] $end
$var wire 1 Y RegWrite $end
$var wire 5 +" Write_register [4:0] $end
$var wire 1 ! clk_i $end
$var reg 32 ," ALU_result_o [31:0] $end
$var reg 1 -" MemtoReg_o $end
$var reg 32 ." Read_data_o [31:0] $end
$var reg 1 ] RegWrite_o $end
$var reg 5 /" Write_register_o [4:0] $end
$upscope $end
$scope module MUX4 $end
$var wire 32 0" data2_i [31:0] $end
$var wire 1 v select_i $end
$var wire 32 1" data_o [31:0] $end
$var wire 32 2" data1_i [31:0] $end
$upscope $end
$scope module MUX6 $end
$var wire 32 3" data_i [31:0] $end
$var wire 32 4" data_o [31:0] $end
$var wire 32 5" forward_EM_i [31:0] $end
$var wire 2 6" select_i [1:0] $end
$var wire 32 7" forward_MW_i [31:0] $end
$var reg 32 8" tmp [31:0] $end
$upscope $end
$scope module MUX7 $end
$var wire 32 9" data_i [31:0] $end
$var wire 32 :" forward_EM_i [31:0] $end
$var wire 2 ;" select_i [1:0] $end
$var wire 32 <" forward_MW_i [31:0] $end
$var wire 32 =" data_o [31:0] $end
$var reg 32 >" tmp [31:0] $end
$upscope $end
$scope module MUX8 $end
$var wire 1 d harzard_i $end
$var wire 8 ?" signal_i [7:0] $end
$var wire 8 @" signal_o [7:0] $end
$upscope $end
$scope module MUX_Branch $end
$var wire 32 A" data1_i [31:0] $end
$var wire 32 B" data2_i [31:0] $end
$var wire 1 C" select_i $end
$var wire 32 D" data_o [31:0] $end
$upscope $end
$scope module MUX_Jump $end
$var wire 32 E" data1_i [31:0] $end
$var wire 32 F" data2_i [31:0] $end
$var wire 1 C select_i $end
$var wire 32 G" data_o [31:0] $end
$upscope $end
$scope module MUX_MemtoReg $end
$var wire 32 H" data1_i [31:0] $end
$var wire 32 I" data2_i [31:0] $end
$var wire 1 -" select_i $end
$var wire 32 J" data_o [31:0] $end
$upscope $end
$scope module MUX_RegDst $end
$var wire 5 K" data1_i [4:0] $end
$var wire 5 L" data2_i [4:0] $end
$var wire 1 x select_i $end
$var wire 5 M" data_o [4:0] $end
$upscope $end
$scope module OR $end
$var wire 1 N" branch_i $end
$var wire 1 !" flush_o $end
$var wire 1 C jump_i $end
$upscope $end
$scope module PC $end
$var wire 1 ! clk_i $end
$var wire 32 O" pc_i [31:0] $end
$var wire 1 c pchazard_i $end
$var wire 1 ( rst_i $end
$var wire 1 " start_i $end
$var reg 32 P" pc_o [31:0] $end
$upscope $end
$scope module Registers $end
$var wire 5 Q" RDaddr_i [4:0] $end
$var wire 32 R" RDdata_i [31:0] $end
$var wire 5 S" RSaddr_i [4:0] $end
$var wire 5 T" RTaddr_i [4:0] $end
$var wire 1 ] RegWrite_i $end
$var wire 1 ! clk_i $end
$var wire 32 U" RTdata_o [31:0] $end
$var wire 32 V" RSdata_o [31:0] $end
$upscope $end
$scope module Sign_Extend $end
$var wire 16 W" data_i [15:0] $end
$var reg 32 X" data_o [31:0] $end
$var integer 32 Y" i [31:0] $end
$upscope $end
$scope module eq $end
$var wire 32 Z" data1_i [31:0] $end
$var wire 32 [" data2_i [31:0] $end
$var wire 1 \" eq_o $end
$upscope $end
$upscope $end
$upscope $end
$enddefinitions $end
#0
$dumpvars
x\"
bx ["
bx Z"
bx Y"
bx X"
bx W"
bx V"
bx U"
bx T"
bx S"
bx R"
bx Q"
b0 P"
bx O"
xN"
bx M"
bx L"
bx K"
bx J"
bx I"
bx H"
bx G"
bx00 F"
bx E"
bx D"
xC"
bx B"
b100 A"
bx @"
bx ?"
bx >"
bx ="
bx <"
bx ;"
bx :"
bx 9"
bx 8"
bx 7"
bx 6"
bx 5"
bx 4"
bx 3"
bx 2"
bx 1"
bx 0"
bx /"
bx ."
x-"
bx ,"
bx +"
bx *"
bx )"
bx00 ("
bx '"
bx &"
b0 %"
b100000000001000000000000000000 $"
bx #"
bx ""
x!"
b100000000001000000000000000000 ~
b100 }
bx |
bx {
bx z
bx y
xx
bx w
xv
bx u
bx t
xs
xr
xq
xp
bx o
xn
xm
bx l
bx k
bx j
bx i
bx h
bx g
bx f
xe
xd
xc
xb
bx a
bx `
bx _
bx ^
x]
bx \
bx [
bx Z
xY
xX
bx W
bx V
xU
xT
bx S
xR
xQ
bx P
bx O
bx N
xM
xL
bx K
bx J
bx I
xH
xG
xF
xE
xD
xC
xB
xA
x@
bx ?
bx >
b0 =
b100 <
b100 ;
bx :
bx 9
bx00 8
bx 7
bx 6
bx 5
bx 4
bx 3
bx 2
bx 1
b0 0
bx /
b100000000001000000000000000000 .
bx00 -
bx ,
bx +
bx *
x)
z(
b0 '
b11 &
b100000 %
b0 $
b0 #
0"
1!
$end
#1
b0 4
b0 O
0)
b0 a
b0 ;"
b0 `
b0 6"
b10 /
b10 3
b10 7
1\"
b0 1
b0 1"
0p
1m
0q
0r
0s
b11 t
1n
b0 k
b0 V"
b0 Z"
b0 j
b0 U"
b0 ["
b0 2
b0 4"
b0 8"
b0 S
b0 2"
b0 ="
b0 >"
b0 *
b0 P
b0 M"
0!"
0N"
0C"
b11100010 @"
b0 ,
b0 7"
b0 <"
b0 J"
b0 R"
b0 K"
b0 L"
b0 h
b0 _
b0 ^
b0 5
1c
1e
1d
0b
b11 ?
0B
0C
0A
0E
1H
0F
0@
1G
b11100010 ?"
0D
b0 \
b0 /"
b0 Q"
b0 ,"
b0 H"
b0 ."
b0 I"
0]
0-"
b0 Z
b0 [
b0 +"
b0 I
b0 W
b0 K
b0 V
b0 )"
b0 5"
b0 :"
0M
0L
0Y
0X
b0 y
b0 |
b0 0"
b0 {
b0 9"
b0 z
b0 3"
b0 w
0x
b0 6
b0 u
0v
0U
0T
0Q
0R
b100 G"
b100 O"
b0 '"
b100 D"
b100 E"
b0 :
b0 B"
b0 8
b0 +
b0 i
b0 X"
b100000 Y"
b0 >
b0 -
b0 ("
b0 F"
b0 &"
b0 S"
b0 T"
b0 W"
b0 g
b0 f
b0 l
b0 #"
b0 9
b0 o
b0 ""
#12
1"
#25
0!
#50
1s
b0 t
0n
b10010 @"
b0 ?
1@
b10010 ?"
0G
b1000 G"
b1000 O"
b1000 >
b100000000000000000000 -
b100000000000000000000 ("
b100000000000000000000 F"
b1000000000000000000 &"
b100 T"
b100 f
b10000000 l
b100000000010000000000000000000 .
b100000000010000000000000000000 ~
b100000000010000000000000000000 $"
b1000 D"
b1000 E"
bx ."
bx I"
1x
b11 6
b11 u
1Q
b100 :
b100 B"
b100 9
b100 o
b100 ""
b100000000001000000000000000000 #"
b1000 <
b1000 }
b1000 A"
b100 0
b100 =
b100 %"
b100 P"
b1 #
1!
#75
0!
#100
b1100 G"
b1100 O"
b100 *
b100 P
b100 M"
b100000000010010000000000000001 .
b100000000010010000000000000001 ~
b100000000010010000000000000001 $"
b1100 D"
b1100 E"
b1000000000000000000000 -
b1000000000000000000000 ("
b1000000000000000000000 F"
b10000000000000000000 &"
b1000 T"
b1000 f
b100000000 l
b100 K"
b100 h
b100 ^
b1100 <
b1100 }
b1100 A"
b1000 0
b1000 =
b1000 %"
b1000 P"
b1000 :
b1000 B"
b1000 9
b1000 o
b1000 ""
b100000000010000000000000000000 #"
b10000000 y
b100 w
0x
b0 6
b0 u
1v
1Y
b10 #
1!
#125
0!
#150
b100 8
b1000 *
b1000 P
b1000 M"
b1 +
b1 i
b1 X"
b100000 Y"
b10000 G"
b10000 O"
b1000 K"
b1000 h
b1000 ^
b1001000000000000000100 -
b1001000000000000000100 ("
b1001000000000000000100 F"
b10010000000000000001 &"
b1001 T"
b1 W"
b1001 f
b100100000 l
b100000000100010000000000000000 .
b100000000100010000000000000000 ~
b100000000100010000000000000000 $"
b10000 D"
b10000 E"
1]
b100 Z
b100 [
b100 +"
b100000000 y
b1000 w
b10000 :
b10000 B"
b1100 9
b1100 o
b1100 ""
b100000000010010000000000000001 #"
b10000 <
b10000 }
b10000 A"
b1100 0
b1100 =
b1100 %"
b1100 P"
b11 #
1!
#175
0!
#200
b1 4
b1 O
b0 a
b0 ;"
b0 8
b10100 G"
b10100 O"
b0 +
b0 i
b0 X"
b100000 Y"
b1001 *
b1001 P
b1001 M"
b100000000100100000000000000001 .
b100000000100100000000000000001 ~
b100000000100100000000000000001 $"
b10100 D"
b10100 E"
b10001000000000000000000 -
b10001000000000000000000 ("
b10001000000000000000000 F"
b100010000000000000000 &"
b10001 T"
b0 W"
b10001 f
b1000100000 l
b1001 K"
b1001 h
b1001 ^
b1 5
b1 1
b1 1"
b10100 <
b10100 }
b10100 A"
b10000 0
b10000 =
b10000 %"
b10000 P"
b10000 :
b10000 B"
b10000 9
b10000 o
b10000 ""
b100000000100010000000000000000 #"
b100100000 y
b1 |
b1 0"
b1100 w
b1000 Z
b1000 [
b1000 +"
b100 \
b100 /"
b100 Q"
b100 #
1!
#225
0!
#250
b0 4
b0 O
b100 8
b10001 *
b10001 P
b10001 M"
b1 +
b1 i
b1 X"
b100000 Y"
b11000 G"
b11000 O"
b10001 K"
b10001 h
b10001 ^
b0 5
b0 1
b0 1"
b10010000000000000000100 -
b10010000000000000000100 ("
b10010000000000000000100 F"
b100100000000000000001 &"
b10010 T"
b1 W"
b10010 f
b1001000000 l
b10001100100100000000000000000000 .
b10001100100100000000000000000000 ~
b10001100100100000000000000000000 $"
b11000 D"
b11000 E"
b1000 \
b1000 /"
b1000 Q"
b1001 Z
b1001 [
b1001 +"
b1 K
b1 V
b1 )"
b1 5"
b1 :"
b1000100000 y
b0 |
b0 0"
b10000 w
b11000 :
b11000 B"
b10100 9
b10100 o
b10100 ""
b100000000100100000000000000001 #"
b11000 <
b11000 }
b11000 A"
b10100 0
b10100 =
b10100 %"
b10100 P"
b101 #
1!
#275
0!
#300
1p
1r
b11011 @"
1B
1F
b11011 ?"
1D
b1 4
b1 O
b0 a
b0 ;"
b0 8
b11100 G"
b11100 O"
b0 +
b0 i
b0 X"
b100000 Y"
b10010 *
b10010 P
b10010 M"
b100010000101000000000000000000 .
b100010000101000000000000000000 ~
b100010000101000000000000000000 $"
b11100 D"
b11100 E"
b100011 >
b10010000000000000000000000 -
b10010000000000000000000000 ("
b10010000000000000000000000 F"
b100100000000000000000000 &"
b100 S"
b10000 T"
b0 W"
b100 g
b10000 f
b1001000000000 l
b10010 K"
b10010 h
b10010 ^
b1 5
b1 1
b1 1"
b1 ,
b1 7"
b1 <"
b1 J"
b1 R"
b11100 <
b11100 }
b11100 A"
b11000 0
b11000 =
b11000 %"
b11000 P"
b11000 :
b11000 B"
b11000 9
b11000 o
b11000 ""
b10001100100100000000000000000000 #"
b1001000000 y
b1 |
b1 0"
b10100 w
b10001 Z
b10001 [
b10001 +"
b0 K
b0 V
b0 )"
b0 5"
b0 :"
b1001 \
b1001 /"
b1001 Q"
b1 ,"
b1 H"
b110 #
1!
#325
0!
#350
b0 4
b0 O
0B
0F
b10010 ?"
0D
0p
0m
0r
0s
b0 @"
0c
0e
0d
1b
b10000 *
b10000 P
b10000 M"
b100000 G"
b100000 O"
b0 ,
b0 7"
b0 <"
b0 J"
b0 R"
b10000 K"
b10000 h
b100 _
b10000 ^
b0 5
b0 1
b0 1"
b1000 >
b1000010100000000000000000000 -
b1000010100000000000000000000 ("
b1000010100000000000000000000 F"
b10000101000000000000000000 &"
b10000 S"
b10100 T"
b10000 g
b10100 f
b100001010000000 l
b10000010011000000000100010 .
b10000010011000000000100010 ~
b10000010011000000000100010 $"
b100000 D"
b100000 E"
b10001 \
b10001 /"
b10001 Q"
b0 ,"
b0 H"
b10010 Z
b10010 [
b10010 +"
b1 K
b1 V
b1 )"
b1 5"
b1 :"
b1001000000000 y
b0 |
b0 0"
b11000 w
1U
1R
b11100 :
b11100 B"
b11100 9
b11100 o
b11100 ""
b100010000101000000000000000000 #"
b100000 <
b100000 }
b100000 A"
b11100 0
b11100 =
b11100 %"
b11100 P"
b111 #
1!
#375
0!
#400
b10 `
b10 6"
b0 a
b0 ;"
1m
1s
b10100 *
b10100 P
b10100 M"
b10010 @"
b10100 K"
b10100 h
b10000 _
b10100 ^
1c
1e
1d
0b
b111 J
b111 *"
b1 ,
b1 7"
b1 <"
b1 J"
b1 R"
b100001010000000 y
b11100 w
0v
0U
0Q
0R
b10000 Z
b10000 [
b10000 +"
b0 K
b0 V
b0 )"
b0 5"
b0 :"
1M
1X
b10010 \
b10010 /"
b10010 Q"
b1 ,"
b1 H"
b1000 #
b1 '
1!
#425
0!
#450
b111 4
b111 O
0s
b11 t
1n
b11100010 @"
b111 2
b111 4"
b111 8"
b11 ?
0@
b11100010 ?"
1G
b1 `
b1 6"
0\"
b11111111111111100000000010001000 8
b111 k
b111 V"
b111 Z"
b1 j
b1 U"
b1 ["
b11111111111111111000000000100010 +
b11111111111111111000000000100010 i
b11111111111111111000000000100010 X"
b100000 Y"
b100100 G"
b100100 O"
b111 ,
b111 7"
b111 <"
b111 J"
b111 R"
bx J
bx *"
b0 >
b1000001001100000000010001000 -
b1000001001100000000010001000 ("
b1000001001100000000010001000 F"
b10000010011000000000100010 &"
b1001 T"
b1000000000100010 W"
b1001 f
b100000100110000 l
b10001100101000100000100000 .
b10001100101000100000100000 ~
b10001100101000100000100000 $"
b100100 D"
b100100 E"
b10000 \
b10000 /"
b10000 Q"
b0 ,"
b0 H"
b111 ."
b111 I"
1-"
b10100 Z
b10100 [
b10100 +"
0M
0Y
0X
1v
1Q
b11111111111111100000000010101000 :
b11111111111111100000000010101000 B"
b100000 9
b100000 o
b100000 ""
b10000010011000000000100010 #"
b100100 <
b100100 }
b100100 A"
b100000 0
b100000 =
b100000 %"
b100000 P"
b1001 #
1!
#475
0!
#500
b110 /
b110 3
b110 7
b110 4
b110 O
b0 a
b0 ;"
b0 `
b0 6"
b11111111111111100010000010000000 8
b101000 G"
b101000 O"
b11111111111111111000100000100000 +
b11111111111111111000100000100000 i
b11111111111111111000100000100000 X"
b100000 Y"
b0 k
b0 V"
b0 Z"
b100010010100110000000000000000 .
b100010010100110000000000000000 ~
b100010010100110000000000000000 $"
b101000 D"
b101000 E"
b1000110010100010000010000000 -
b1000110010100010000010000000 ("
b1000110010100010000010000000 F"
b10001100101000100000100000 &"
b10001 S"
b10010 T"
b1000100000100000 W"
b10001 g
b10010 f
b100011001010001 l
b1001 K"
b10000 L"
b1001 h
b1001 ^
b100010 5
b10000 *
b10000 P
b10000 M"
b1 1
b1 1"
b111 2
b111 4"
b111 8"
b1 S
b1 2"
b1 ="
b1 >"
b0 ,
b0 7"
b0 <"
b0 J"
b0 R"
b101000 <
b101000 }
b101000 A"
b100100 0
b100100 =
b100100 %"
b100100 P"
b11111111111111100010000010100100 :
b11111111111111100010000010100100 B"
b100100 9
b100100 o
b100100 ""
b10001100101000100000100000 #"
b100000100110000 y
b11111111111111111000000000100010 |
b11111111111111111000000000100010 0"
b1 {
b1 9"
b111 z
b111 3"
b100000 w
1x
b11 6
b11 u
0v
b111 K
b111 V
b111 )"
b111 5"
b111 :"
1Y
b10100 \
b10100 /"
b10100 Q"
bx ."
bx I"
0]
0-"
b1010 #
1!
#525
0!
#550
1s
b0 t
0n
b10010 @"
b10 /
b10 3
b10 7
b1 4
b1 O
b0 ?
1@
b10010 ?"
0G
b0 8
b10001 *
b10001 P
b10001 M"
b1 k
b1 V"
b1 Z"
b0 j
b0 U"
b0 ["
b0 +
b0 i
b0 X"
b100000 Y"
b101100 G"
b101100 O"
b111 ,
b111 7"
b111 <"
b111 J"
b111 R"
b10010 K"
b10001 L"
b10010 h
b10001 _
b10010 ^
b100000 5
b0 2
b0 4"
b0 8"
b1000 >
b1001010011000000000000000000 -
b1001010011000000000000000000 ("
b1001010011000000000000000000 F"
b10010100110000000000000000 &"
b10010 S"
b10011 T"
b0 W"
b10010 g
b10011 f
b100101001100000 l
b100010001100100000000000000000 .
b100010001100100000000000000000 ~
b100010001100100000000000000000 $"
b101100 D"
b101100 E"
b111 ,"
b111 H"
1]
b10000 Z
b10000 [
b10000 +"
b1 I
b1 W
b110 K
b110 V
b110 )"
b110 5"
b110 :"
b100011001010001 y
b11111111111111111000100000100000 |
b11111111111111111000100000100000 0"
b0 z
b0 3"
b100100 w
b101000 :
b101000 B"
b101000 9
b101000 o
b101000 ""
b100010010100110000000000000000 #"
b101100 <
b101100 }
b101100 A"
b101000 0
b101000 =
b101000 %"
b101000 P"
b1011 #
1!
#575
0!
#600
b0 `
b0 6"
b110000 G"
b110000 O"
b0 k
b0 V"
b0 Z"
b1 j
b1 U"
b1 ["
b100010011100010000000000000000 .
b100010011100010000000000000000 ~
b100010011100010000000000000000 $"
b110000 D"
b110000 E"
b1000110010000000000000000000 -
b1000110010000000000000000000 ("
b1000110010000000000000000000 F"
b10001100100000000000000000 &"
b10001 S"
b10010 T"
b10001 g
b10010 f
b100011001000000 l
b10011 K"
b0 L"
b10011 h
b10010 _
b10011 ^
b0 5
b10011 *
b10011 P
b10011 M"
b0 1
b0 1"
b1 2
b1 4"
b1 8"
b0 S
b0 2"
b0 ="
b0 >"
b110 ,
b110 7"
b110 <"
b110 J"
b110 R"
b110000 <
b110000 }
b110000 A"
b101100 0
b101100 =
b101100 %"
b101100 P"
b101100 :
b101100 B"
b101100 9
b101100 o
b101100 ""
b100010001100100000000000000000 #"
b100101001100000 y
b0 |
b0 0"
b0 {
b0 9"
b1 z
b1 3"
b101000 w
0x
b0 6
b0 u
1v
b10001 Z
b10001 [
b10001 +"
b1 K
b1 V
b1 )"
b1 5"
b1 :"
b10000 \
b10000 /"
b10000 Q"
b110 ,"
b110 H"
b1100 #
1!
#625
0!
#650
b1 4
b1 O
b1 `
b1 6"
0\"
b10010 *
b10010 P
b10010 M"
b1 j
b1 U"
b1 ["
b110100 G"
b110100 O"
b1 ,
b1 7"
b1 <"
b1 J"
b1 R"
b10010 K"
b10010 h
b10001 _
b10010 ^
b1 S
b1 2"
b1 ="
b1 >"
b1 2
b1 4"
b1 8"
b1001110001000000000000000000 -
b1001110001000000000000000000 ("
b1001110001000000000000000000 F"
b10011100010000000000000000 &"
b10011 S"
b10001 T"
b10011 g
b10001 f
b100111000100000 l
b10010000010000000000000000001 .
b10010000010000000000000000001 ~
b10010000010000000000000000001 $"
b110100 D"
b110100 E"
b10001 \
b10001 /"
b10001 Q"
b1 ,"
b1 H"
b10011 Z
b10011 [
b10011 +"
b0 I
b0 W
b100011001000000 y
b1 {
b1 9"
b0 z
b0 3"
b101100 w
b110000 :
b110000 B"
b110000 9
b110000 o
b110000 ""
b100010011100010000000000000000 #"
b110100 <
b110100 }
b110100 A"
b110000 0
b110000 =
b110000 %"
b110000 P"
b1101 #
1!
#675
0!
#700
0m
0s
b1 t
b100000 @"
b1 ?
1A
0H
b100000 ?"
0@
b0 a
b0 ;"
b1 `
b1 6"
b100 8
b111000 G"
b111000 O"
b1 +
b1 i
b1 X"
b100000 Y"
b10001 *
b10001 P
b10001 M"
b110 k
b110 V"
b110 Z"
b0 j
b0 U"
b0 ["
b1000000000000000000000000111 .
b1000000000000000000000000111 ~
b1000000000000000000000000111 $"
b111000 D"
b111000 E"
b100 >
b1000001000000000000000000100 -
b1000001000000000000000000100 ("
b1000001000000000000000000100 F"
b10000010000000000000000001 &"
b10000 S"
b1000 T"
b1 W"
b10000 g
b1000 f
b100000100000000 l
b10001 K"
b10001 h
b10011 _
b10001 ^
b111000 <
b111000 }
b111000 A"
b110100 0
b110100 =
b110100 %"
b110100 P"
b111000 :
b111000 B"
b110100 9
b110100 o
b110100 ""
b10010000010000000000000000001 #"
b100111000100000 y
b110000 w
b10010 Z
b10010 [
b10010 +"
b1 I
b1 W
b10011 \
b10011 /"
b10011 Q"
b1110 #
1!
#725
0!
#750
b0 t
b0 @"
b110 2
b110 4"
b110 8"
b110 4
b110 O
b0 ?"
b0 ?
1C
0A
b0 `
b0 6"
b110 /
b110 3
b110 7
1!"
0N"
0C"
1\"
b11100 8
b1000 *
b1000 P
b1000 M"
b0 k
b0 V"
b0 Z"
b111 +
b111 i
b111 X"
b100000 Y"
b11100 G"
b11100 O"
b1000 K"
b1000 h
b10000 _
b1000 ^
b1 5
b0 S
b0 2"
b0 ="
b0 >"
b0 1
b0 1"
b10 >
b11100 -
b11100 ("
b11100 F"
b111 &"
b0 S"
b0 T"
b111 W"
b0 g
b0 f
b0 l
b10101100100100010000000000000100 .
b10101100100100010000000000000100 ~
b10101100100100010000000000000100 $"
b111100 D"
b111100 E"
b10010 \
b10010 /"
b10010 Q"
b10001 Z
b10001 [
b10001 +"
b100000100000000 y
b1 |
b1 0"
b0 {
b0 9"
b110 z
b110 3"
b110100 w
b1 6
b1 u
0v
0Q
b1010100 :
b1010100 B"
b111000 9
b111000 o
b111000 ""
b1000000000000000000000000111 #"
b111100 <
b111100 }
b111100 A"
b111000 0
b111000 =
b111000 %"
b111000 P"
b1111 #
1!
#775
0!
#800
1m
b11 t
1n
0!"
b11100010 @"
b11 ?
0C
1H
b11100010 ?"
1G
b0 4
b0 O
0)
b10 /
b10 3
b10 7
b0 8
b100000 G"
b100000 O"
b0 +
b0 i
b0 X"
b100000 Y"
b0 *
b0 P
b0 M"
b10000010011000000000100010 .
b10000010011000000000100010 ~
b10000010011000000000100010 $"
b100000 D"
b100000 E"
b0 >
b0 -
b0 ("
b0 F"
b0 &"
b0 W"
b0 K"
b0 h
b0 _
b0 ^
b111 5
b0 2
b0 4"
b0 8"
b100000 <
b100000 }
b100000 A"
b11100 0
b11100 =
b11100 %"
b11100 P"
b0 :
b0 B"
b0 9
b0 o
b0 ""
b0 #"
b0 y
b111 |
b111 0"
b0 z
b0 3"
b111000 w
b0 6
b0 u
b1000 Z
b1000 [
b1000 +"
b0 I
b0 W
b110 K
b110 V
b110 )"
b110 5"
b110 :"
0Y
b10001 \
b10001 /"
b10001 Q"
b10000 #
b1 $
1!
#825
0!
#850
0\"
b11111111111111100000000010001000 8
b110 k
b110 V"
b110 Z"
b1 j
b1 U"
b1 ["
b11111111111111111000000000100010 +
b11111111111111111000000000100010 i
b11111111111111111000000000100010 X"
b100000 Y"
b100100 G"
b100100 O"
b110 ,
b110 7"
b110 <"
b110 J"
b110 R"
b0 5
b1000001001100000000010001000 -
b1000001001100000000010001000 ("
b1000001001100000000010001000 F"
b10000010011000000000100010 &"
b10000 S"
b1001 T"
b1000000000100010 W"
b10000 g
b1001 f
b100000100110000 l
b10001100101000100000100000 .
b10001100101000100000100000 ~
b10001100101000100000100000 $"
b100100 D"
b100100 E"
b1000 \
b1000 /"
b1000 Q"
b110 ,"
b110 H"
0]
b0 Z
b0 [
b0 +"
b0 K
b0 V
b0 )"
b0 5"
b0 :"
b0 |
b0 0"
b0 w
1x
b11 6
b11 u
1Q
b11111111111111100000000010101000 :
b11111111111111100000000010101000 B"
b100000 9
b100000 o
b100000 ""
b10000010011000000000100010 #"
b100100 <
b100100 }
b100100 A"
b100000 0
b100000 =
b100000 %"
b100000 P"
b10001 #
1!
#875
0!
#900
b110 /
b110 3
b110 7
b101 4
b101 O
1\"
b11111111111111100010000010000000 8
b101000 G"
b101000 O"
b1 k
b1 V"
b1 Z"
b11111111111111111000100000100000 +
b11111111111111111000100000100000 i
b11111111111111111000100000100000 X"
b100000 Y"
b10000 *
b10000 P
b10000 M"
b1 1
b1 1"
b100010010100110000000000000000 .
b100010010100110000000000000000 ~
b100010010100110000000000000000 $"
b101000 D"
b101000 E"
b1000110010100010000010000000 -
b1000110010100010000010000000 ("
b1000110010100010000010000000 F"
b10001100101000100000100000 &"
b10001 S"
b10010 T"
b1000100000100000 W"
b10001 g
b10010 f
b100011001010001 l
b1001 K"
b10000 L"
b1001 h
b10000 _
b1001 ^
b100010 5
b1 S
b1 2"
b1 ="
b1 >"
b110 2
b110 4"
b110 8"
b0 ,
b0 7"
b0 <"
b0 J"
b0 R"
b101000 <
b101000 }
b101000 A"
b100100 0
b100100 =
b100100 %"
b100100 P"
b11111111111111100010000010100100 :
b11111111111111100010000010100100 B"
b100100 9
b100100 o
b100100 ""
b10001100101000100000100000 #"
b100000100110000 y
b11111111111111111000000000100010 |
b11111111111111111000000000100010 0"
b1 {
b1 9"
b110 z
b110 3"
b100000 w
1Y
b0 \
b0 /"
b0 Q"
b0 ,"
b0 H"
b10010 #
1!
#925
0!
